// Jest Snapshot v1, https://goo.gl/fbAQLP

exports[`VQuestion renders main component 1`] = `
<div class="question border-t border-gray-400 pl-4 py-4 ml-6" type="question"><label for="page-title-123-abc-456" class="flex p-2 cursor-pointer">
    <vpencilicon-stub></vpencilicon-stub>
  </label> <input id="page-title-123-abc-456" type="text" class="input flex-1"> <select class="select my-4 md:my-0">
    <option value="text">text</option>
    <option value="number">number</option>
  </select> <button type="button" class="delete py-2 px-4 md:ml-16">
    <vtrashicon-stub></vtrashicon-stub>
  </button></div>
`;
